licence_number,surname,name,address,city,province_id,postal_code,date_of_birth,sex,ape_id,nationality,current_situation,federation_club_id,province_club_id,club_id,mutual,ranking,card_id,phone,email
5774965,CLAR ROSSELLO,PEDRO,"MARISC, 19    URB. S",PALMA DE MALLORCA,7,7121,1/23/1986,M, ,0,,7,43,11,0,,41515769X,,
9558513,TORRES GARCIA,JOSE MIGUE,"RAMON CARANDE, 19 ES",SEVILLA,41,41013,11/8/1997,M, ,0,,1,41,0,0,, ,,
1433549,CLARET CASTANY,M CARMEN,"CALATRAVA,59-61,EN.1",BARCELONA,8,8017,5/14/1970,F, ,0,,7,8,4,0,,3972,,
11082360,GUAL NEVADO,JAVIER,"COLOBOR, 13",SANT ANTONI DE VILAM,8,8459,12/14/1973,M, ,0,,7,8,0,0,,52277052,,
8352198,CLARK HERNANDEZ,GUILLERMO,"GENERAL URRUTIA, 65-",VALENCIA,46,46017,10/16/1948,M, ,0,,10,46,93,0,,22493793T,,
8138811,VELEZ MARTIN,M PINO,C/ LEON Y CASTILLO 2,LAS PALMAS DE G.C.,35,35013,11/17/1959,F, ,0,,14,35,20,0,,42802021X,,
1812165,CLAUDIO ALCUDIA,FRANCISCO,"TRAV.LES CORTS,260 E",BARCELONA,8,8014,7/28/1944,M, ,0,,7,8,15,0,,38368975F,,
9009491,CLAUDIO GUERRA,JOSE ANGEL,AVDA. HONDURAS 5 - 1,SANTANDER,39,39005,1/11/1959,M, ,0,,6,39,3,0,,13726721E,,
8137920,CONCEPCION DIAZ,VERONICA,"C/PEDRO POGGIO,10-AT",LOS LLANOS DE ARIDAN,38,38760,5/4/1996,F, ,0,,14,38,104,0,,42233149C,,
8137889,GARCIA JOVER,PABLO,"CARLOS FCO.LORENZO,7",LOS LLANOS DE ARIDAN,38,38760,9/25/1996,M,,0,,14,38,104,0,,42419886C,,
8137871,POLO CASTILLO,CARLOS,"CALLE URUGUAY, 26",LOS REALEJOS-TENERIF,38,38410,11/9/1994,M, ,0,,14,38,0,0,,43380680N,,
8137821,BATISTA GONZALEZ,ALEXANDER,SUBIDA DEL SOBRADILL,BARRANCO GRANDE - TE,38,38100,12/20/1994,M, ,0,,14,38,29,0,,45448165G,,
